179 2
1 0 
1 7 a b b b b b b
1 61 b b a a b b b b b b b b b b b b b a a b a a a a b b b b b b b b a a a a b b b b b a a a a b b b a b a a b b b b b b b b b
1 2 a a
1 2 b b
1 51 a b b a a a b b b b b b a a a b b b a a a a b a a a a b a a a b b b b b a a a a a a a a a a b b b b b
1 6 b b b b b b
1 23 a a a a a b b b a a a a a a b b b b b b b b b
1 49 b b b b b b b b b b b b b b b b a a a a a a a b b b a a b b b b b a a a a a b b b b b b b b b b b
1 8 b b b b b b b b
1 37 b b a b a a a b b b b b b b b a a a a a a a a a a b a a a b b b b b b b b
1 14 a b b a b a a a b a a a b b
1 1 a
1 6 a b b a b b
1 63 b b b b b b b b a a a a b a a a b a a b b b b b b b b b a a b a a a a a a a b b b b b b a a a a b b a a a a a b b b b b b b b
1 3 a b b
1 17 a b a a a a a a a a b b b a a b b
1 23 a b b b b b b a a a b a b a a a b b b b b b b
1 22 a a a a a a a a a b a a a a a b b b b b b b
1 7 b b a b b b b
1 42 a b a a b b b b b a a a a a b b b b b a a a a a a b b b b a a a a a a a a b b b b b
1 46 b b b b b b a a a a a a a a b a a a a b b a a a a a b a b b b b b b b b b a a a a b a b b b
1 4 b b b b
1 29 a a a a a b b b a a a a b b b b b b b b a a b b b a b b b
1 58 b b a a b b b b a a a a a b b b b b b b b b a a a a b b b a a a a a b b b a b a a a a a a a a a b a a a b a a b b b
1 26 b b b b a a a a a a a a b b b b b b b a a a a b b a
0 18 a b b a a a a b a a a b a a a a a b
0 8 a a a a a b a a
0 17 a a a a a b a a a a a a a a a a a
0 49 b b a a a a a b b b a a b a a a a a a a a a a a b b a a a a b a a a a a a b b b b b a a a a b a a
0 8 a a a a a a a b
0 25 b b a a a a a b b b b a a a a a a b b b a a a a b
0 9 a a b a a b a a a
0 16 a a a a a b a a a a a a a a a a
0 34 b b a a a a a b b b a a b a a a a a a a a a a a b b a a a a b a a a
0 11 a b b a a a a b a a a
0 47 a b b a a a a b a a a b a a a a a b b b b b a a a a a a a b b a a a a a a b b b a b b b b a b
0 51 b b a a b b b b b b b a a a a a b b b b b b b a a b b b b b b b b b b b b a b b b b b a a a a a a b a
0 12 a a a a a b a a a a a a
0 9 a b b a a a a b a
0 33 a a b a a a a a a b b b b b b b b b b b b a b b b b a a a a a a b
0 63 a b b a a a a b a a a b a a a a a b b b b b a a a a a a a b b a a a a a a b b b a b b b b a b b b b b b b a a a a a b a a a a
0 26 b b a a b b b b b b b a a a a a b b b b b b b a a b
0 50 b b a a a a a b b b a a b a a a a a a a a a a a b b a a a a b a a a a a a b b b b b a a a a b a a a
0 16 b b b b b b a a a a a a a a a b
0 32 b b a a a a a b b b a a b a a a a a a a a a a a b b a a a a b a
0 61 a b b a a a a b a a a b a a a a a b b b b b a a a a a a a b b a a a a a a b b b a b b b b a b b b b b b b a a a a a b a a
0 60 a b b a a a a b a a a b a a a a a b b b b b a a a a a a a b b a a a a a a b b b a b b b b a b b b b b b b a a a a a b a
0 18 b b a a a a a b b b a a b a a a a a
0 23 a a b a a a a a a b b b b b b b b b b b b a b
0 50 b b a a b b b b b b b a a a a a b b b b b b b a a b b b b b b b b b b b b a b b b b b a a a a a a b
0 10 b b a a b a a a a a
0 36 b b a a a a a b b b a a b a a a a a a a a a a a b b a a a a b a a a a a
0 13 a a a a a b a a a a a a a
0 8 a a b a a a a a
0 16 b b a a a a a b b b a a b a a a
0 6 a a a a a b
0 7 b b a a a a b
0 24 b b b b b b b b b b a a a a b a a b b b a b a b
0 26 b b a a b a a a a a b b b b b b b b b a a a a a a b
0 5 a a b a a
0 45 b b a a a a a b b b b a a a a a a b b b a a a a b a a b b b b b b b b b b b b b b b a b a
0 12 a a a b b b b a a a a b
0 8 b b b b a a a b
0 2 a b
0 48 b b a a a a a b b b a a b a a a a a a a a a a a b b a a a a b a a a a a a b b b b b a a a a b a
0 11 a a a a a b a a a a a
0 20 b b a a a a a b b b a a b a a a a a a a
0 11 b b a a b a a a a a b
0 8 a a b a a b a a
0 19 b b a a a a a a b b a a a a b a a a a
0 16 b b b b b b b b b b a a a a b a
0 6 a a b a a a
0 41 a a a a a a a b b b b b b a a a a b b b a a a a a b b b b b b b b b b a a a a a b
0 23 b b a a a a a b b b a a b a a a a a a a a a a
0 17 b b b b b b b b a a a a b b b a b
0 48 b b a a a a a b b b b a a a a a a b b b a a a a b a a b b b b b b b b b b b b b b b a b a a a a
0 15 a a b a a a a a a b b b a a b
0 33 b b a a a a a b b b a a b a a a a a a a a a a a b b a a a a b a a
0 26 a a a a a a a b b b b b b a a a a b b b a a a a a b
0 15 b b a a a a a a b b a a a a b
0 17 b b a a a a a b b b a a b a a a a
0 20 b b a a a a a a b b a a a a b a a a a a
0 37 b b a a a a a b b b a a b a a a a a a a a a a a b b a a a a b a a a a a a
0 26 b b b b b b b b b b b b b b b b b b b b b a a a a b
0 7 b b a a b a a
0 4 b b a b
0 30 b b b b a a a b b b b b b b b b b b b b b a a a a a a a a b
0 4 a a b a
0 10 a a a a a b a a a a
0 42 a b b a a a a b a a a b a a a a a b b b b b a a a a a a a b b a a a a a a b b b a b
0 22 b b b b b b b b b b a a a a b a a b b b a b
0 66 a b b a a a a b a a a b a a a a a b b b b b a a a a a a a b b a a a a a a b b b a b b b b a b b b b b b b a a a a a b a a a a a a b
0 75 b b a a a a a b b b b a a a a a a b b b a a a a b a a b b b b b b b b b b b b b b b a b a a a a b b b a b b b b b b b b b a a a a a b b b b a a a a b
0 38 b b a a a a a b b b a a b a a a a a a a a a a a b b a a a a b a a a a a a b
0 34 b b a a a a a a b b a a a a b a a a a a b b b b b b b a b b b b a b
0 17 b b b b b b b b b b a a a a b a a
0 9 a a a a a b a a a
0 8 b b a a b a a a
0 26 b b a a a a a b b b b a a a a a a b b b a a a a b a
0 73 a b b a a a a b a a a b a a a a a b b b b b a a a a a a a b b a a a a a a b b b a b b b b a b b b b b b b a a a a a b a a a a a a b b a a a a a b
0 13 a b b a a a a b a a a b a
0 7 a a b a a a a
0 7 a a a a a b a
0 14 a a a a a b a a a a a a a a
0 47 b b a a a a a b b b a a b a a a a a a a a a a a b b a a a a b a a a a a a b b b b b a a a a b
0 4 a a a b
0 44 b b a a a a a b b b b a a a a a a b b b a a a a b a a b b b b b b b b b b b b b b b a b
0 6 b b b b a b
0 7 a a b a a b a
0 10 a b b a a a a b a a
0 29 b b a a a a a a b b a a a a b a a a a a b b b b b b b a b
0 17 a b b a a a a b a a a b a a a a a
0 27 b b a a a a a b b b b a a a a a a b b b a a a a b a a
0 6 b b a a b a
0 39 b b a a b b b b b b b a a a a a b b b b b b b a a b b b b b b b b b b b b a b
0 49 b b a a a a a b b b b a a a a a a b b b a a a a b a a b b b b b b b b b b b b b b b a b a a a a b
0 12 a b b a a a a b a a a b
0 17 b b a a a a a a b b a a a a b a a
0 35 b b a a a a a b b b a a b a a a a a a a a a a a b b a a a a b a a a a
0 9 a a b a a a a a a
0 21 b b a a a a a b b b a a b a a a a a a a a
0 18 a a a a a a a b b b b b b a a a a b
0 54 b b a a a a a b b b a a b a a a a a a a a a a a b b a a a a b a a a a a a b b b b b a a a a b a a a b a a b
0 65 a b b a a a a b a a a b a a a a a b b b b b a a a a a a a b b a a a a a a b b b a b b b b a b b b b b b b a a a a a b a a a a a a
0 31 b b a a a a a b b b a a b a a a a a a a a a a a b b a a a a b
0 46 a a a a a a a b b b b b b a a a a b b b a a a a a b b b b b b b b b b a a a a a b b a a a b
0 19 b b a a a a a b b b a a b a a a a a a
0 59 a b b a a a a b a a a b a a a a a b b b b b a a a a a a a b b a a a a a a b b b a b b b b a b b b b b b b a a a a a b
0 59 b b a a a a a b b b a a b a a a a a a a a a a a b b a a a a b a a a a a a b b b b b a a a a b a a a b a a b b b b a b
0 46 b b a a a a a b b b b a a a a a a b b b a a a a b a a b b b b b b b b b b b b b b b a b a a
0 23 b b b b b b b b b b a a a a b a a b b b a b a
0 38 a b b a a a a b a a a b a a a a a b b b b b a a a a a a a b b a a a a a a b
0 52 b b a a b b b b b b b a a a a a b b b b b b b a a b b b b b b b b b b b b a b b b b b a a a a a a b a a
0 28 b b a a a a a b b b b a a a a a a b b b a a a a b a a b
0 25 b b b b b b b b b b a a a a b a a b b b a b a b b
0 30 a b b a a a a b a a a b a a a a a b b b b b a a a a a a a b
0 62 a b b a a a a b a a a b a a a a a b b b b b a a a a a a a b b a a a a a a b b b a b b b b a b b b b b b b a a a a a b a a a
0 8 a b b a a a a b
0 3 a a b
0 18 b b a a a a a b b b b a a a a a a b
0 12 a a b a a b a a a a a b
0 21 b b a a a a a a b b a a a a b a a a a a b
0 6 a a b a a b
0 11 a a b a a b a a a a a
0 17 b b a a a a b b b a a a a a a a b
0 16 a b b a a a a b a a a b a a a a
0 51 b b a a a a a b b b a a b a a a a a a a a a a a b b a a a a b a a a a a a b b b b b a a a a b a a a b
0 53 b b a a a a a b b b a a b a a a a a a a a a a a b b a a a a b a a a a a a b b b b b a a a a b a a a b a a
0 64 a b b a a a a b a a a b a a a a a b b b b b a a a a a a a b b a a a a a a b b b a b b b b a b b b b b b b a a a a a b a a a a a
0 47 b b a a a a a b b b b a a a a a a b b b a a a a b a a b b b b b b b b b b b b b b b a b a a a
0 13 b b b b b b b b a a a a b
0 18 b b a a a a a a b b a a a a b a a a
0 8 b b a a a a a b
0 25 b b a a a a a b b b a a b a a a a a a a a a a a b
0 5 b b a a b
0 15 a a a a a b a a a a a a a a a
0 10 a a b a a b a a a a
0 9 b b a a a a a a b
0 25 a a a a a b a a a a a a a a a a a b b a a a a a b
0 14 b b a a a a a b b b a a b a
0 15 b b b b b b b b b b a a a a b
0 15 b b a a a a a b b b a a b a a
0 16 b b a a a a a a b b a a a a b a
0 15 a b b a a a a b a a a b a a a
0 22 b b a a a a a b b b a a b a a a a a a a a a
0 10 a a b a a a a a a b
0 24 b b a a a a a b b b a a b a a a a a a a a a a a
0 9 b b a a b a a a a
0 53 b b a a a a a b b b b a a a a a a b b b a a a a b a a b b b b b b b b b b b b b b b a b a a a a b b b a b
0 18 b b b b b b b b b b a a a a b a a b
0 17 b b a a b b b b b b b a a a a a b
0 1 b
0 18 a a a a a b a a a a a a a a a a a b
0 52 b b a a a a a b b b a a b a a a a a a a a a a a b b a a a a b a a a a a a b b b b b a a a a b a a a b a
0 67 b b a a a a a b b b b a a a a a a b b b a a a a b a a b b b b b b b b b b b b b b b a b a a a a b b b a b b b b b b b b b a a a a a b
0 14 a b b a a a a b a a a b a a
0 53 b b a a b b b b b b b a a a a a b b b b b b b a a b b b b b b b b b b b b a b b b b b a a a a a a b a a b
0 13 b b a a a a a b b b a a b
