127 2
1 0 
1 3 b a a
1 2 b a
1 38 b a a b a a a b b a a a a a b a a a a b a a a b b a a a a a a b a a b b a a
1 25 b b a b a a a a a b a a b b a a a a b a a b a b a
1 10 a b a a a a a a b a
1 27 a b a b a a b b a a b a a a a b b a a a a a a a a a b
1 36 b b a a b b a a a a b b a a a a a b a a a a b b a a a a a b a a b b a a
1 2 a b
1 7 a b a a a a a
1 22 b b a a a a b a a a a a b a a a a a a a a a
1 4 a b b a
1 28 b b a a a a b a a b b a a a a b b a a a a a b a b a b a
1 8 a a a a a a b a
1 7 b b a a a b a
1 18 b a b b a b b a a b b a a a b b b a
1 37 a b a a a a b a a a a a b b a b b a a a a a b b a a a a b b b a a a a b a
1 36 a b b b b b a a a a b b b a a a a b a a a a a b a b b a a a b a a a a a
1 35 b b a a b b a b a b a a b a a b a a a a b b a a a b b a a a a a b a a
1 23 a b b a a a a b a a a a b a b b a a a a a b a
1 8 a b b b a a a a
1 27 a b a a a a a b b b a a a a a a a a b a a b b b a a a
1 28 a b a a a a a a b b a b a a a b b a a a a a b a a a a a
1 1 a
1 28 b a a b a b b a b a a a a a b b a a a b b a b b a a a a
1 15 b b a a a a a b a a a a a b a
1 5 a b a b a
1 5 b a a b a
1 17 b b a a a a b b a a a a a a b b a
1 15 a a b a a a a a b a b a a b a
1 25 a b a a a a b b a b a a a b b a b b b b a a a a a
0 26 a b a b a a a a b a a a a a b b a a a a b b a a b b
0 1 b
0 30 b b a b b a a a a b b a a a a a a b a a b a a a a b a a b b
0 3 b b b
0 30 a b a b a a a b b a a a a a b a a a a a a b a b b a b b a b
0 13 b b a b a b a a a b b a b
0 11 a b a a a b b a a b b
0 10 a b a a b b a a b b
0 12 a b a a a a b a a a b b
0 25 a b a b a a a b b a a a a a b a a a a a a b a b b
0 9 b b a a b a a b b
0 10 a b a a a b b a b b
0 5 a b a b b
0 15 b b a a b a a a a b a a a b b
0 11 b b a a a a b b a b b
0 6 b b a a b b
0 31 a b a a a a b a a a b b a a a a b a a a a b a a a b b a a b b
0 11 b b a b b a a a a b b
0 10 b b a a b a a a b b
0 26 b b a b a b b a b b a a a a a b b a a a b a a a b b
0 5 b b a b b
0 4 b b a b
0 20 b b a a a a b b a b b a a a b a a a b b
0 7 b b a b a b b
0 17 b b a b a b b a b b a a a a a b b
0 10 b b a a a a b b a b
0 8 b b a a a a b b
0 14 a b b a a b a a a a b b a b
0 10 a b a b a a a a b b
0 24 a a a a a b a a a a a b a b b a a a b b a a b b
0 9 a b a b a a a b b
0 15 a a a a a b a a a a a b a b b
0 13 a b a a a a b a b a a b b
0 28 b b a b a b b a b a a b a a a b b a a a a b a a a a b b
0 24 a b b a a a a b b a b a a a a a b a a a a a b b
0 33 a b a a a a a b a a b b a a a b a a a a a a b a b a a a b a a b b
0 22 a b a b a a a a b a a a a a b b a a a a b b
0 6 a a a b b b
0 6 a b a a b b
0 27 a b a a a a b a a a b b a a a a b a a a a b a a a b b
0 2 b b
0 4 a b b b
0 9 a b b a a a a b b
0 25 a b a a b b a a b b a a a b b a a a b a a a a b b
0 21 a b a b a a a a b b a a a a a b a b b a b
0 15 a b b a a b a a a a b b a b b
0 5 a b b a b
0 9 b b a a a a a b b
0 20 a a a a a b a a a a a b a b b a a a b b
0 12 a b a a b b a a a a b b
0 11 a a b a b a a b a b b
0 18 a a a a a b a a a a b a a a a b b b
0 17 a a a a a b a a a a b a a a a b b
0 4 b b b b
0 15 a b a a b b a a b b a a a b b
0 3 a b b
0 9 b a b b a a a b b
0 24 a a a a a b a a a a b a a a a b b b b a a a b b
0 33 b a b b a b b a a a b a a a b a a a a a a b a a a a a b a a b b b
0 10 b b a b a b b a b b
0 8 b b a a b b a b
0 7 a a a b b b b
0 16 b b a a b a a a b b a a a a b b
0 11 b b a b a b a a a b b
0 19 a a a a a b a a a a b a a a a b b b b
0 4 b a b b
0 7 a b a a a b b
0 12 b b a a b a a b b a b b
0 28 b b a b a b b a b b a a a a a b b a a a b a a a b b a b
0 7 b a b b a b b
0 6 b a b b a b
0 27 a b a b a a a b b a a a a a b a a a a a a b a b b a b
0 29 b b a b a b b a b b a a a a a b b a a a b a a a b b a b b
0 8 a b b a a a b b
0 10 b b a a a a a b b b
0 5 a a a b b
0 9 a b a a a b b a b
0 13 a a a b b b b a a b a b b
0 32 b a b b a b b a a a b a a a b a a a a a a b a a a a a b a a b b
0 12 a b b a a b a a a a b b
0 34 b a b b a b b a a a b a a a b a a a a a a b a a a a a b a a b b b b
0 17 b b a b a b b a b a a b a a a b b
0 5 b a b a b
0 28 a b a b a a a b b a a a a a b a a a a a a b a b b a b b
0 16 a b a b a a a a b a a a a a b b
0 3 b a b
0 9 b b a b a b b a b
0 11 b b a a b a a b b a b
0 11 a b b a a a a b b a b
0 13 a b a a a b b a a b b a b
0 20 a b a a a a b b a a a a b a a b a a b b
0 12 a b a a a a a b a a b b
0 6 b b a b a b
0 9 b b b b a a a b b
0 8 a b a a a a b b
0 19 a b a b a a a a b b a a a a a b a b b
