601 6
1 0 
1 11 e e e e c c c f f f f
1 17 b f a d f f f a d f f f f d c d c
1 17 e e e e e e f f d c a b a b f a d
1 15 e e e e a b f a d f a d f a d
1 8 f a d a b f a d
1 12 c a b a b a b d c f f f
1 14 e e e e f f f a d a b a b c
1 17 e e e e e e e e f a d f a d f a d
1 7 b f a d f f c
1 3 e e c
1 1 c
1 9 b a b f f f c f f
1 35 b a b f a d f a d f a d f a d a b f f f f f a b f f f f f a d a b a b
1 12 b f f f d c f a d f a d
1 8 b d c f f f a d
1 5 b f f f c
1 13 e e e e d c d c f d c f f
1 14 e e d c f f f f a d a b a b
1 10 e e e e f a d f a d
1 19 e e e e e e c c f f f f a b f a d a b
1 11 e e e e e e f f f a d
1 27 e e e e e e f d c f f a d f a d f a d a b c f d c f f
1 8 e e f a d f a d
1 24 e e e e c f a d f f f f f a d f a d f a d f a d
1 9 b c a b f a d a b
1 11 e e e e f d c f d c f
1 17 b f f f a b a b f f f f f f f f c
1 18 b f a d a b a b f a d f a d f f f f
1 5 b f f c c
1 8 b f f d c f f c
1 11 f f f f f f f f f f f
1 11 e e e e e e e e f a d
1 6 e e e e c c
1 14 e e e e e e a b a b f f f c
1 17 e e e e e e f a d f f a b a b a b
1 9 b d c f f f f d c
1 7 b c f f f a d
1 15 e e e e e e e e c c d c f f f
1 26 b d c f d c f a d a b a b f a d a b f f f a d f a d
1 9 b f a d f a d a b
1 8 e e e e f a d c
1 6 b a b f a d
1 5 a b f a d
1 9 e e e e e e f a d
1 20 b f a d f a d f a d a b f f f f f a d c
1 8 e e e e f f f f
1 12 b c a b f f f f f f a b
1 14 b f a d f a d a b f a b f f
1 11 b c a b f a d f a d f
1 16 b c f f a d f a d f f f f f f f
1 14 e e e e e e f a d f a d a b
1 10 e e e e e e e e c c
1 15 b a b f a d a b d c c f f a d
1 12 b f f f f f a d f a d c
1 5 b f f f f
1 7 b c c f f d c
1 13 b a b a b f f f a b a b c
1 12 f f f f a d d c d c f f
1 8 b f f f c f f f
1 14 e e a b f f f f f a d f a d
1 7 e e e e e e c
1 14 e e e e e e e e c c f f f f
1 6 e e e e c f
1 10 b c c a b a b f a d
1 2 e e
1 14 b f a d f a d f a d f f d c
1 8 b f a d a b d c
1 10 b c f a d f f f c c
1 12 e e e e f d c f d c f c
1 6 f a d f a d
1 20 e e f f f f a d a b a b f a d a b f a d
1 7 f a d f a d c
1 7 e e e e c c f
1 16 e e e e e e f a d f a d f d c f
1 16 e e e e e e e e f f f a d f a d
1 9 b f a d f a d c c
1 20 b f a d f f f a d f a d f a d f d c f f
1 24 e e e e e e c f f d c f f a d f a d f a d f a d
1 8 e e e e e e c c
1 9 b f f f d c f c c
1 2 b f
1 3 b c f
1 19 e e e e e e e e c a b a b f f d c d c
1 14 f f f f f a d a b f a d f f
1 10 e e e e f f d c f c
1 17 e e e e e e e e f a d f f f f f f
1 8 e e d c d c c c
1 12 b d c f f f c f f f a d
1 12 e e e e a b a b a b a b
1 16 b a b f f f f d c d c d c f f f
1 9 e e f a d f a d f
1 3 b c c
1 8 b f a d f a d c
1 4 b f a d
1 7 b c a b a b f
1 21 e e f a d f f f f a d f a d f a d f f a d
1 13 e e f a d f a d f a d a b
1 16 e e e e e e f a d a b f f f f f
1 17 e e f a d a b a b f f f f f f f c
1 18 e e e e c f a d a b f a d a b f a d
1 12 e e e e e e d c f f a d
1 19 e e e e e e e e a b f a d f f f f f c
1 8 b f a d a b a b
1 14 e e e e e e e e a b f a d c
1 18 e e c f a d f f f a b a b a b f a d
1 9 e e e e f a d f f
1 14 b d c d c f f f f f f a d f
1 18 e e a b f a d a b d c d c f d c f f
1 9 b f f f f f f d c
1 12 f c f a d f a d f f a b
1 10 e e e e e e a b f c
1 4 f a d f
1 14 c a b a b f a d f a d f a d
1 13 b f f a b f a d f a d c c
1 20 e e e e f f f d c f a d f f f f f f a d
1 7 c c f a d f f
1 9 c d c f f f f d c
1 16 b f a d f a d f a d c c f a d f
1 27 e e e e e e e e c f f f f f f f f f f f f f f d c f f
1 14 b f f f f f f a d f f f f f
1 4 b a b f
1 16 b c f a d f a d f a d f a d f c
1 17 f d c f f f f f d c d c f f d c f
1 22 e e e e e e e e f f f a b f a d f a d f a d
1 12 e e e e e e e e d c f f
1 14 b c f f a d f a d d c f f f
1 17 e e e e e e e e f f f f a b f f c
1 9 e e e e f d c f f
1 9 b f a d a b f f c
1 19 e e e e e e e e f a d f a d f f f a d
1 12 b f f f a d a b f f f f
1 14 b f f f a b f a d c a b a b
1 17 b f a d f a d f f f f f a d f a d
1 16 b f f f f a b f f f a d f a d f
1 10 f f f d c d c d c f
1 15 b c f a d a b a b f a d f a d
1 15 e e e e e e f a b f a d f a d
1 12 b c f a d f d c d c d c
1 9 e e e e e e a b c
1 14 e e e e e e e e f a d a b c
1 13 e e e e c f f f f f f a b
1 8 b c c f a d a b
1 14 b f d c f f f f f a d f a d
1 8 e e e e e e e e
1 10 e e e e e e e e a b
1 37 e e e e e e e e f a d f f f f f a d f f f f f a d f a d c a b f a d f a d
1 15 b f a d f f f f f f f d c f c
1 14 e e f a d c f f f f f f f f
1 3 c c c
1 19 b f a d f a d f a d a b d c f f f f f
1 8 e e e e f d c f
1 8 b c d c f f d c
1 5 e e e e c
1 20 e e e e e e e e a b f f a d f f f a b f
1 8 e e c f d c f f
1 11 e e d c f f a d a b c
1 8 e e f a d f f c
1 3 b a b
1 9 e e e e e e f f f
1 12 e e e e e e c f f f f f
1 18 b f f f f a d f a d f a d d c f a d
1 11 b a b a b a b f f d c
1 11 b f a d f a d a b a b
1 12 e e a b a b f a d a b c
1 18 e e f a d f a b f a d f a d f f f f
1 3 b d c
1 13 e e d c c f a d f f f f c
1 4 e e e e
1 9 b c f a d f f f f
1 14 e e e e e e a b f a d f c c
1 2 c c
1 12 f f f f f f f f a d a b
1 8 e e e e f f c c
1 20 e e e e f d c f f f f f f f f f f f f f
1 30 e e e e e e d c f d c f a d a b a b f a d a b f a d f f f f
1 21 b f a d f a d f f f f f a d f a d f a d c
1 20 e e f f f a b f a d f a d f a d a b f f
1 9 a b c d c d c f c
1 15 e e c f a d f a d a b f a d c
1 6 e e e e e e
1 10 b c c a b f a d f f
1 12 e e e e f a b a b f a d
1 24 e e e e f a d f a d f f f f f a d a b f f f a d
1 21 f f a d f a d f a d f a d a b f a d f a d
1 16 b c a b f a d f a d f a d f a d
1 17 b f a d f a d f a d a b a b f a d
1 6 e e f f f f
1 19 b f f f f a b d c f f f f a d f a d c
1 6 b f a d a b
1 10 b c a b f a d a b f
1 5 e e c c c
1 18 b f d c f f a d f a d f a d a b a b
1 2 b c
1 10 e e e e e e f a d c
1 13 b d c f d c f f f f f a b
1 17 e e e e e e e e f a d f a d f f c
1 1 b
1 4 b c c c
1 6 b c f a d f
1 11 f f a b f a d c f f f
1 11 e e e e e e e e d c f
1 10 e e e e e e f f c c
1 18 e e e e e e f a d f a d d c f f f f
0 5 b a b f a
0 14 e e e e e e f f f f a d f a
0 5 e e e e a
0 8 b a b f a d f a
0 14 e e e e e e f a d f a d f a
0 16 b c f a d f a d f a d f a d f a
0 9 b a b a b f a d d
0 14 b a b a b f a d f f a b f a
0 8 b c f f f a b a
0 25 e e e e e e e e f f f f f f f f f a d a b f f f d
0 17 e e e e e e f f f f f a b f a b a
0 19 b c f a d f a d f a d f a d f a d f a
0 11 b f f f f a d a b f a
0 7 b d c d c f a
0 18 e e e e e e e e f f f f f f f f f a
0 25 b c d c d c d c f a d f f f f f a d f f f a b f a
0 11 b f a d f a d f f f a
0 18 e e e e e e f a d f a d f a d a b a
0 3 b f a
0 4 f d c d
0 14 b a b a b f f f f f d c f a
0 11 f d c d c f f a d f a
0 20 e e e e e e e e f f f f f f f f f a d a
0 8 b c f f d c f a
0 14 b f f f a d c a b f a d f a
0 7 b f f f f f a
0 2 b d
0 6 a b a b f a
0 16 b f f a b a b f a d f f f a b a
0 22 e e e e e e e e f a d f a d f a d f a d f a
0 20 e e e e e e e e f a d f f f f f f f f a
0 12 b a b f f f f f a d f a
0 7 b c d c d c d
0 15 f a d f a d f f f d c f f f a
0 9 b f f a d f f f a
0 5 b f d c d
0 17 e e e e e e a b a b f a d c f f a
0 6 f d c d c d
0 4 a b f a
0 12 e e e e f f f f f a d a
0 12 e e e e e e e e f f f a
0 8 e e e e c f f d
0 22 b c d c d c d c f a d f f f f f a d f f f a
0 7 e e e e e e a
0 24 e e e e e e e e f a d f f f f a d a b f a d f a
0 15 b f a d f a d f a d f a d f d
0 15 b f f d c f a d f a d f a d a
0 4 e e f d
0 10 e e e e e e e e f a
0 22 e e e e c f a d a b a b a b a b f a d a b a
0 10 f f f a d f a d f a
0 21 b f a d f a d f a d f f f a d f a d d c d
0 10 e e e e a b a b f a
0 15 e e e e e e a b f f f a b f a
0 9 b a b f a d f f a
0 19 b f a d f a d f f f f f a d f f f f a
0 12 b f a d f f f f f f f d
0 6 e e e e f d
0 13 b f f f f f a d f f f f a
0 21 e e e e e e f a d f a d f a d a b a b f a
0 13 b c f a d f f f f a d f a
0 6 b c f f f a
0 12 b a b f a d f f a d f a
0 20 e e e e e e c f a d f a d f a d f a d a
0 8 b f a d f f f a
0 8 b c c f a d f a
0 13 a b f a d f a d f a d f d
0 17 e e e e e e f f f f a d f a d f a
0 7 e e e e e e d
0 18 e e e e c f a d a b a b a b a b f a
0 12 e e f a d f a d f a d a
0 6 e e c a b a
0 6 b f a d f a
0 18 e e e e e e e e a b f f a d a b f a
0 9 b a b a b f f f a
0 16 e e e e e e f a d a b f a d f a
0 11 e e f f f f f a d f a
0 13 e e e e e e d c f f d c a
0 10 e e e e e e f a d a
0 9 e e e e e e e e d
0 9 b d c f f a d f a
0 13 f f f a d f a d f a d f a
0 12 e e f a d f d c f f f a
0 15 a b f a d f a d f a d f d c d
0 20 b d c f f a d f a d f a d f a d f a d a
0 4 b d c d
0 7 e e f f f f a
0 15 e e e e e e e e f a d f a d a
0 10 e e f a d f a d f a
0 21 b f a d f a d f f f f f a d f f f f a b a
0 19 b f a d f a d f a d f f f a d f a d d
0 26 e e e e e e f f f f f a b f a b a b f f f f a d f a
0 13 b a b a b f a d d c f f d
0 9 e e e e c f a d a
0 14 e e e e e e e e a b f a d a
0 8 f f d c f f f a
0 7 b c f f a d a
0 11 e e e e e e f a d f a
0 17 e e e e e e a b f a d d c f f f a
0 18 f a d f a d f a d f f a b f a d f a
0 9 b f f a b a b f a
0 3 b c a
0 5 e e f f a
0 23 e e e e e e e e f a d f f f f f f f f a d f a
0 17 b f a d f a d f a d f f f a d f a
0 23 e e e e e e f f f f f a b f a b a b f f f f a
0 11 b f f f a d c a b f a
0 5 b f a d d
0 9 e e e e e e e e a
0 8 e e e e f d c d
0 8 b f f f a d f a
0 25 e e e e e e e e a b f a d a b f f f a b f a d f a
0 12 e e e e e e e e a b f a
0 15 b f f f a b f f a d f f a b a
0 18 b f a d f f f a d c f f f f a d f a
0 9 e e e e e e c f a
0 9 b f a d a b f f a
0 14 e e e e e e e e a b f f f a
0 12 b f f a d f f f a d f a
0 11 e e e e e e e e f f d
0 13 b f a d f f f f c a b f a
0 10 b f f a d f a d f a
0 15 f a d f a d f f f f f f f f a
0 15 e e e e e e e e f f f a d f a
0 17 e e e e e e f f f f a d f a d c a
0 13 b f f d c f a d f a d f a
0 23 e e e e d c a b f a d f f f f f f f f a d f a
0 28 f a d f a d f a d d c a b f a d a b f f f a d f a d f a
0 6 b f f a d a
0 11 b f a d a b f a d f a
0 12 b f a d f a d a b a b a
0 16 e e e e e e e e a b f f f f f a
0 11 b a b a b f a d f f a
0 12 e e e e e e e e f a d a
0 19 e e e e e e e e f a d f a d f a d f a
0 14 f d c d c f f a d f a d f a
0 14 e e f f f f f a d f a b f a
0 9 b c f a d f f f a
0 3 a b a
0 1 d
0 9 b f a d f d c f d
0 10 e e e e e e e e f d
0 3 e e e
0 19 b a b f a d f f a d f a d f a d a b a
0 20 e e e e c f a d a b a b a b a b f a d a
0 18 b f f f a b f f a d f f a b a b f a
0 3 b f d
0 25 b f a d f a d a b f a d f a d f a d a b f a d f a
0 12 e e e e e e a b f f f a
0 7 e e e e a b a
0 10 b a b a b f a d f a
0 11 b f a b f f f a d f a
0 10 b a b f a d f f f a
0 9 b d c f f f f f d
0 11 b f f a d a b f f f a
0 6 e e e e f a
0 6 b a b a b d
0 13 e e e e e e f a d f a d a
0 8 e e e e e e f a
0 2 f a
0 11 a b f a d f f a d f a
0 16 b f a d a b f f f a d f a d f a
0 32 e e e e e e f f f f f a b f a b a b f f f f a d f a d f a d f a
0 8 b f a d f f f d
0 7 b a b a b f a
0 6 b f f c f a
0 14 e e e e f f f f a d f a d a
0 4 b f f a
0 17 e e e e e e d c f f d c a b f f d
0 7 b f f a d f a
0 5 b c f f a
0 15 b a b f a d f f a d f a d f a
0 14 e e e e e e e e f a d a b a
0 5 b c c f a
0 7 e e e e c f d
0 4 b c f a
0 6 b f a d f d
0 18 e e e e e e d c f f f a d f a d f a
0 9 e e e e f f f f a
0 10 f a d f a d f a d d
0 10 e e e e c f d c f d
0 26 b f a d f a d f f f f f a d f f f f a b a b c f f a
0 9 b f a d f a d f a
0 16 b f a d f f f f c a b f a d f a
0 3 b c d
0 5 b f a d a
0 10 b c f a d f f f f a
0 7 b f f d c f a
0 13 b f a d f a d f f f f f a
0 11 f d c d c d c f f f d
0 15 b c d c f f d c f a d f a d a
0 14 e e e e e e e e c f a d f a
0 9 e e e e e e f f a
0 8 b f a d d c f a
0 16 b f f a d f a d f a d f a d f a
0 22 e e e e e e e e a b f a d a b f f f a b f a
0 13 e e e e e e e e a b f f a
0 22 b f a d f a d a b f a d f a d f a d a b f a
0 10 a b f a d f a d f a
0 15 b d c f f a d f a d f a d f a
0 13 b f a d a b f f f a d f a
0 8 b f f f f a d a
0 16 b f a d f a d a b f f f f a d a
0 13 e e e e e e e e f a d f a
0 4 e e f a
0 10 b c d c f f d c f a
0 8 e e f f f f f a
0 21 e e e e e e f a d f f f f f a d f f f f a
0 8 e e e e f a d a
0 3 f f d
0 13 e e e e e e f a d a b f a
0 9 e e e e f a d f a
0 10 e e e e e e a b f a
0 11 b a b f f f f a b f a
0 10 b a b a b d c f f a
0 16 e e e e e e f a d f a d f a d a
0 11 b f a d f f a b f f d
0 9 b f f f a b f f a
0 8 f a d f a d f a
0 26 e e e e d c a b f a d f f f f f f f f a d f a d f a
0 13 b f d c f f a d f a d f a
0 19 b f a d f a d a b f a d f a d f a d a
0 7 b c d c f f d
0 9 b a b a b f a d a
0 6 b c a b f a
0 19 b f a d a b f f f a d f a d f a b f a
0 8 e e c a b a b a
0 12 b d c d c f a d a b f a
0 7 a b f a d f a
0 22 f a d f a d f a d d c a b f a d a b f f f a
0 7 b f a d f f a
0 18 e e e e e e e e f a d f f f f a d a
0 19 e e e e e e e e f f f c f a d f a d a
0 21 e e e e e e e e a b f a d f a d f a d f a
0 9 e e f f f f a d a
0 7 b c f a d f a
0 4 b f f d
0 6 b f f a b a
0 5 e e e e d
0 8 b f d c d c f d
0 8 b f a d a b f a
0 8 b f f f a d c a
0 10 b c c f a d f a d a
0 9 b a b f f f f f a
0 13 b f f f a b f f a d f f a
0 14 b f a d f a d a b f a d f a
0 12 e e e e e e a b f a d d
0 16 b f a d f a d a b f a d a b f a
0 7 e e e e d c a
0 15 e e e e e e c f a d f a d f a
0 10 b f d c f f a d f a
0 8 a b f a d f f a
0 2 f d
0 15 f a d f a d f a d d c a b f a
0 24 e e e e e e f a d f f f f f a d f f f f a d f a
0 7 e e f a d f d
0 24 b f a d f a d a b f a d a b f a d f a d f a d a
0 18 e e e e e e c f a d f a d f a d f a
0 5 b c f f d
0 16 e e e e f f f f a d f a d f f d
0 29 e e e e e e f f f f f a b f a b a b f f f f a d f a d f a
0 17 e e e e e e e e f f f c f a d f a
0 13 a b f a d f a d f a d f a
0 12 e e e e e e f f f f f a
0 16 e e e e e e e e f a d f a d f a
0 13 e e e e e e e e c f f f a
0 5 e e e e e
0 17 f d c d c f f a d f a d f a d f a
0 13 e e e e e e f f f a d f a
0 14 b f f d c f a b f f f f f a
0 4 e e c a
0 15 e e e e e e e e f a d a b f a
0 8 b d c d c f f d
0 21 b f a d f f f a d c f f f f a d f a d f a
0 5 b d c f d
0 17 b c d c d c d c f a d f f f f f a
0 11 e e e e e e f f f f a
0 13 b c c f a d f a d a b f a
0 9 e e e e e e a b a
0 8 b f a d f a d a
0 20 e e e e d c a b f a d f f f f f f f f a
0 19 b f f a d f a d f a d f a d f a d f a
0 10 b c f a d f a d f a
0 15 f a d f a d f a d f f a b f a
0 10 b f d c d c f d c d
0 12 e e e e e e d c f f f a
0 10 b c d c d c d c f a
0 15 b f a d f f f a d c f f f f a
0 6 b f f f f a
0 16 e e e e e e e e f a d f f f f a
0 7 f f f a d f a
0 15 e e e e e e f a d f f f f f a
0 7 e e e e c f a
0 5 b f f f a
0 12 b f a d f a d f a d f a
0 13 b c d c f f d c f a d f a
0 18 e e e e e e f a d a b f a d f a d a
0 11 e e e e e e d c f f d
0 22 b f a d f a d a b f a d a b f a d f a d f a
0 14 b f a b f f f a d f a d f a
0 11 b f a d f f f f f f a
0 17 b f a d d c f a d f a d f f f f a
0 6 e e f a d a
0 17 b a b f a d f f a d f a d f a d a
0 6 b d c f f a
0 18 b d c f f a d f a d f a d f a d f a
0 9 b d c d c f a d a
0 11 b a b f a d f a d f a
0 14 b f a d f a d f a d f f f a
0 16 e e e e e e e e f a d a b a b a
0 17 b f f f a d c a b f a d f a d f a
0 15 e e e e e e d c f f f a d f a
0 26 f a d f a d f a d f f a b f a d f a d f a d f f f a
0 9 b f a d f f f f a
0 17 f a d f a d f a d d c a b f a d a
0 18 b a b a b f a d d c f f d c f a d a
0 1 e
0 15 e e e e c f a d a b a b a b a
0 13 b f f a d f a d f a d f a
0 20 e e e e e e a b f f f a b f a d c f f d
0 7 e e f f f f d
0 19 e e e e e e e e a b f a d a b f f f a
0 8 e e e e f f f d
0 11 e e e e e e c f a d a
0 22 e e e e e e c f a d f a d f a d f a d a b a
0 14 e e e e e e e e f f f c f a
0 12 b d c f f a d f a d f a
0 13 b c f a d f a d f a d f a
0 34 e e e e e e f f f f f a b f a b a b f f f f a d f a d f a d f a d a
0 21 f a d f a d f a d f f a b f a d f a d f a
0 21 a b f a d f a d f a d f d c d c f f f f a
0 5 b f f f d
0 11 b a b a b f f f f f d
0 10 f a d f a d f f f d
0 15 b f a d f f a b f f d c f f a
0 11 e e f f f f d c f f a
0 4 b a b a
0 10 b f a d f f f f c a
0 11 b c f f d c f a d f a
0 22 e e f f f f f a d f a b f a b f a d f a d a
0 12 e e e e f a d a b f f a
0 7 e e f a d f a
0 18 e e e e e e e e a b f a d f a d f a
0 21 b a b a b f a d d c f f d c f a d a b f a
0 10 e e e e d c a b f a
0 12 e e c f f f f f f f f a
0 17 b f a d f a d a b f a d f a d f a
0 10 e e e e e e f f f a
0 13 e e e e a b a b f a d f a
0 29 e e e e d c a b f a d f f f f f f f f a d f a d f a d f a
0 20 e e f f f f f a d f a b f a b f a d f a
0 25 e e e e e e e e f a d f a d f a d f a d f a d f a
0 13 b f a d f a d a b f a d a
0 2 b a
0 10 e e e e f f f f f a
0 7 e e e e e e e
0 6 b a b c f a
0 12 e e e e f f f f a d f a
0 6 f f f c f a
0 10 b f a d a b f f f a
0 17 e e f f f f f a d f a b f a b f a
0 11 e e c a b a b f f f a
0 13 b c c f a d f a d f f f a
0 21 e e e e e e e e f a d f f f f a d a b f a
0 7 b f f f a d a
0 11 e e e e e e e e c f a
0 11 b f a d f a d a b f a
0 15 e e e e e e e e a b f f a d a
0 12 e e e e e e c f a d f a
0 7 b f d c f f a
0 12 e e e e e e a b a b f a
0 12 f a d f a d f a d d c a
0 12 f a d f a d f a d f f a
0 25 f a d f a d f a d d c a b f a d a b f f f a d f a
0 4 f f f a
0 16 b a b a b f a d d c f f d c f a
0 11 b f a d d c f a d f a
0 18 b f a d f f f f f f f d c f f f f a
0 13 e e e e c f a d a b a b a
0 10 b f a d f a d a b a
0 5 f a d f a
0 15 e e e e e e f f f f f a b f a
0 14 b f f a d f f f a d f a d a
0 8 b a b f f f f a
0 14 b f a d f a d a b f f f f a
0 14 b f f a b a b f a d f f f a
0 5 b c d c d
0 8 f d c d c f f a
0 15 e e e e e e e e a b f a d f a
0 15 e e e e f a d a b f f a d f a
0 19 b f a d f a d a b f a d a b f a d f a
0 15 b f f f a d f a d f f f f f a
0 10 b f f d c f a d f a
0 8 b f a b f f f a
0 1 a
0 11 e e e e c f a d a b a
0 9 e e e e c f a d d
